<?xml version="1.0" encoding="UTF-8" standalone="no"?>
<svg xmlns:rdf="http://www.w3.org/1999/02/22-rdf-syntax-ns#" xmlns="http://www.w3.org/2000/svg" height="15.183445mm" width="15.522192mm" version="1.1" xmlns:cc="http://creativecommons.org/ns#" xmlns:dc="http://purl.org/dc/elements/1.1/" viewBox="0 0 54.999893 53.799608">
<g transform="translate(-252.50005,-636.891)">
<g transform="translate(-526.47916,-1445.5706)">
<path d="m795.51168 2134.9952 21.40011 0.016c1.73228 0.0007 3.34117-1.0102 4.22362-2.6532l10.91296-20.3186c0.88239-1.6429 0.90352-3.6668 0.0553-5.3138l-10.48697-20.3352c-0.84915-1.645-2.43705-2.6585-4.16872-2.6608l-21.4012-0.018c-1.73261-0.0002-3.34138 1.0103-4.22377 2.6533l-10.91291 20.3184c-0.8825 1.6432-0.90376 3.6675-0.0552 5.3137l10.48801 20.3369c0.84938 1.645 2.43728 2.6585 4.16872 2.6608z" style="stroke-linejoin:round;stroke:#44d8ea;stroke-linecap:round;stroke-width:2.50000739;fill:none"/>
<g style="fill:#44d8ea" transform="matrix(.83998793 0 0 .83986414 117.05976 -62.60792)">
<path d="m833.57176 2567.4945 2.49154-4.6197c0.36089-0.6698 0.16149-1.5292-0.44589-1.9188l-1.87462-1.2032c-0.6076-0.3891-1.39352-0.1623-1.75477 0.5074l-2.49154 4.6197c0.77789 0.1723 1.52994 0.4914 2.23417 0.9431 0.70453 0.451 1.32533 1.0133 1.84143 1.6709z" style="fill:#44d8ea"/>
<path d="m822.30674 2578.1845c-0.73225-0.9269-1.26398-2.0387-1.54494-3.2639-0.0446-0.1918-0.0866-0.3886-0.1171-0.5845-0.0342 0.03-6.8241 5.3024-10.50981 8.1699-3.31263 2.5713-9.48701 7.3174-10.71329 8.2616-0.14282 0.1109-0.26438 0.2484-0.35513 0.4057l-1.9362 3.3692c-0.24624 0.4234 0.0947 0.9556 0.54042 0.8431l3.5329-0.8821c0.17022-0.041 0.32717-0.1233 0.46732-0.2293 0.89339-0.7006 4.43544-3.4775 7.56316-5.9257l4.83263 3.0998 1.62365-3.008-3.60935-2.3145c0.0893-0.067 7.47928-5.8031 10.22605-7.9404z" style="fill:#44d8ea"/>
<path d="m824.96593 2578.3617c0.5372 0.344 1.10605 0.5854 1.68444 0.7212 1.18141 0.281 2.40177 0.1493 3.49522-0.3511 1.1338-0.5203 2.12833-1.4303 2.8011-2.6773 1.21231-2.2465 1.03737-4.9646-0.24661-6.9442-0.45567-0.7037-1.05506-1.3168-1.78123-1.7825-0.7266-0.4651-1.50446-0.7364-2.29437-0.8315-2.21069-0.2619-4.47437 0.8922-5.68641 3.1388-0.67311 1.2468-0.91907 2.6369-0.78528 3.9702 0.13006 1.2852 0.61487 2.517 1.41669 3.5016 0.38986 0.4851 0.85948 0.9104 1.39645 1.2548z" style="fill:#44d8ea"/>
<path d="m819.77346 2595.1019 4.83262 3.0997c-0.43847 4.173-0.94803 8.8949-1.07558 10.0867-0.0195 0.19-0.007 0.3746 0.0432 0.5568l1.00939 3.7954c0.12634 0.4796 0.71856 0.5459 0.93838 0.1055l1.76017-3.4821c0.0843-0.168 0.1357-0.3505 0.15267-0.5356 0.1585-1.6226 0.96322-9.8126 1.41759-14.2237 0.50362-4.9085 1.43535-13.938 1.44302-13.9852-0.17191 0.066-0.34556 0.1245-0.52549 0.1724-1.12306 0.3247-2.26822 0.3609-3.36695 0.1133-0.37624 3.6513-1.38684 13.4858-1.39877 13.5958l-3.60932-2.3144-1.62626 3.0128h0.004z" style="fill:#44d8ea"/>
<path d="m815.39535 2595.1349 0.77066 0.4933c0.60761 0.3892 1.39356 0.1622 1.75478-0.5073l0.48179-0.8928 1.62365-3.008 0.48178-0.8927c0.36087-0.6698 0.1615-1.5292-0.44587-1.9188l-0.77067-0.4933c-0.60759-0.3891-1.39354-0.1622-1.75478 0.5074l-0.48179 0.8927-1.62365 3.008-0.48179 0.8927c-0.36087 0.6698-0.16151 1.5292 0.44589 1.9188z" style="fill:#44d8ea"/>
</g>
</g>
</g>
</svg>
