<?xml version="1.0" encoding="UTF-8" standalone="no"?>
<svg
   xmlns:dc="http://purl.org/dc/elements/1.1/"
   xmlns:cc="http://creativecommons.org/ns#"
   xmlns:rdf="http://www.w3.org/1999/02/22-rdf-syntax-ns#"
   xmlns:svg="http://www.w3.org/2000/svg"
   xmlns="http://www.w3.org/2000/svg"
   xmlns:sodipodi="http://sodipodi.sourceforge.net/DTD/sodipodi-0.dtd"
   xmlns:inkscape="http://www.inkscape.org/namespaces/inkscape"
   xml:space="preserve"
   height="33"
   viewBox="0 0 33 33"
   width="33"
   version="1.1"
   y="0px"
   x="0px"
   id="svg2"
   inkscape:version="0.91 r13725"
   sodipodi:docname="image11.svg"><metadata
     id="metadata22"><rdf:RDF><cc:Work
         rdf:about=""><dc:format>image/svg+xml</dc:format><dc:type
           rdf:resource="http://purl.org/dc/dcmitype/StillImage" /><dc:title></dc:title></cc:Work></rdf:RDF></metadata><defs
     id="defs20" /><sodipodi:namedview
     pagecolor="#ffffff"
     bordercolor="#666666"
     borderopacity="1"
     objecttolerance="10"
     gridtolerance="10"
     guidetolerance="10"
     inkscape:pageopacity="0"
     inkscape:pageshadow="2"
     inkscape:window-width="1440"
     inkscape:window-height="806"
     id="namedview18"
     showgrid="false"
     inkscape:zoom="1"
     inkscape:cx="20"
     inkscape:cy="20"
     inkscape:window-x="0"
     inkscape:window-y="1"
     inkscape:window-maximized="1"
     inkscape:current-layer="svg2"
     fit-margin-top="0"
     fit-margin-left="0"
     fit-margin-right="0"
     fit-margin-bottom="0" /><g
     id="g3350"
     transform="scale(0.825,0.825)"><g
       id="g4"
       transform="matrix(-0.625,0,0,0.625,40,0)"
       style="fill:#44d8ea"><g
         id="g6"
         style="fill:#44d8ea"><path
           id="path8"
           d="M 32,0 C 14.327,0 0,14.327 0,32 0,49.673 14.327,64 32,64 49.673,64 64,49.673 64,32 64,14.327 49.673,0 32,0 Z m 0,62 C 15.432,62 2,48.569 2,32.001 2,15.432 15.432,2 32,2 48.568,2 62,15.432 62,32.001 62,48.569 48.568,62 32,62 Z"
           style="fill:#44d8ea"
           inkscape:connector-curvature="0" /></g></g><g
       id="g10"
       transform="matrix(0.05256329,0,0,0.05256329,9.7250936,9.7250935)"
       style="fill:#44d8ea"><g
         id="g12"
         style="fill:#44d8ea"><path
           id="path14"
           d="M 377.314,27.704 C 360.761,0.494 325.283,-8.145 298.076,8.41 l -52.561,31.977 -3.607,-5.932 C 231.424,17.226 208.961,11.755 191.729,22.237 174.5,32.72 169.032,55.184 179.512,72.415 l 7.162,11.771 -126.36,77.466 c -11.612,7.065 -30.483,32.364 -35.989,39.95 -2.97,4.09 -3.191,9.563 -0.565,13.881 l 24.784,40.738 c 2.627,4.317 7.591,6.637 12.587,5.88 9.269,-1.402 40.41,-6.529 52.024,-13.596 l 126.357,-77.467 7.161,11.771 c 10.481,17.229 32.946,22.7 50.178,12.217 17.229,-10.481 22.699,-32.946 12.217,-50.177 l -3.607,-5.93 52.561,-31.978 c 27.207,-16.552 35.846,-52.029 19.292,-79.237 z m -277.19,199.38 -0.694,-59.882 85.469,-52.59 c 0.715,8.641 3.392,17.25 8.204,25.161 4.812,7.911 11.229,14.245 18.571,18.853 l -111.55,68.458 z"
           style="fill:#44d8ea"
           inkscape:connector-curvature="0" /><path
           id="path16"
           d="m 52.666,276.584 c -1.823,-1.458 -4.413,-1.459 -6.238,-0.003 -1.683,1.341 -41.198,33.239 -41.198,66.973 0,27.909 18.223,47.4 44.314,47.4 26.836,0 46.314,-19.936 46.314,-47.4 10e-4,-32.082 -41.428,-65.559 -43.192,-66.97 z m 2.916,101.818 c -0.414,0.104 -0.829,0.155 -1.237,0.155 -2.231,0 -4.266,-1.506 -4.842,-3.769 -0.68,-2.672 0.931,-5.389 3.6,-6.075 0.915,-0.241 20.916,-5.754 20.913,-25.823 0,-2.762 2.237,-5 4.999,-5.001 2.762,0 5.001,2.238 5.001,4.999 0.004,22.366 -18.599,33.01 -28.434,35.514 z"
           style="fill:#44d8ea"
           inkscape:connector-curvature="0" /></g></g></g></svg>