<?xml version="1.0" encoding="UTF-8" standalone="no"?>
<svg
   xmlns:dc="http://purl.org/dc/elements/1.1/"
   xmlns:cc="http://creativecommons.org/ns#"
   xmlns:rdf="http://www.w3.org/1999/02/22-rdf-syntax-ns#"
   xmlns:svg="http://www.w3.org/2000/svg"
   xmlns="http://www.w3.org/2000/svg"
   xmlns:sodipodi="http://sodipodi.sourceforge.net/DTD/sodipodi-0.dtd"
   xmlns:inkscape="http://www.inkscape.org/namespaces/inkscape"
   xml:space="preserve"
   height="33"
   viewBox="0 0 33 33"
   width="33"
   version="1.1"
   y="0px"
   x="0px"
   id="svg2"
   inkscape:version="0.91 r13725"
   sodipodi:docname="image1.svg"><metadata
     id="metadata22"><rdf:RDF><cc:Work
         rdf:about=""><dc:format>image/svg+xml</dc:format><dc:type
           rdf:resource="http://purl.org/dc/dcmitype/StillImage" /><dc:title></dc:title></cc:Work></rdf:RDF></metadata><defs
     id="defs20" /><sodipodi:namedview
     pagecolor="#ffffff"
     bordercolor="#666666"
     borderopacity="1"
     objecttolerance="10"
     gridtolerance="10"
     guidetolerance="10"
     inkscape:pageopacity="0"
     inkscape:pageshadow="2"
     inkscape:window-width="1440"
     inkscape:window-height="806"
     id="namedview18"
     showgrid="false"
     fit-margin-top="0"
     fit-margin-left="0"
     fit-margin-right="0"
     fit-margin-bottom="0"
     inkscape:zoom="1"
     inkscape:cx="20"
     inkscape:cy="20"
     inkscape:window-x="0"
     inkscape:window-y="1"
     inkscape:window-maximized="1"
     inkscape:current-layer="svg2" /><g
     style="fill:#44d8ea"
     transform="matrix(0.515625,0,0,-0.515625,0,33)"
     id="g4"><g
       style="fill:#44d8ea"
       id="g6"><g
         style="fill:#44d8ea"
         id="g8"><path
           style="fill:#44d8ea"
           d="M 32,0 C 14.327,0 0,14.327 0,32 0,49.673 14.327,64 32,64 49.673,64 64,49.673 64,32 64,14.327 49.673,0 32,0 Z m 0,62 C 15.432,62 2,48.569 2,32 2,15.432 15.432,2 32,2 48.568,2 62,15.432 62,32 62,48.569 48.568,62 32,62 Z"
           id="path10"
           inkscape:connector-curvature="0" /></g></g><g
       style="fill:#44d8ea"
       id="g12"><g
         style="fill:#44d8ea"
         id="g14"><path
           style="fill:#44d8ea"
           d="m 42.196,23.144 -6.393,-4 c -0.956,-0.552 -2.18,-0.225 -2.731,0.732 l -11,19.248 c -0.553,0.957 -0.225,2.18 0.731,2.732 l 6.393,4 c 0.956,0.553 2.18,0.225 2.732,-0.732 l 11,-19.248 c 0.552,-0.957 0.224,-2.18 -0.732,-2.732 z m -7.534,13.165 -6.358,-3.979 -4.5,7.794 11,-19.248 6.393,4 -6.535,11.433 z"
           id="path16"
           inkscape:connector-curvature="0" /></g></g></g></svg>