<?xml version="1.0" encoding="UTF-8" standalone="no"?>
<svg
   xmlns:dc="http://purl.org/dc/elements/1.1/"
   xmlns:cc="http://creativecommons.org/ns#"
   xmlns:rdf="http://www.w3.org/1999/02/22-rdf-syntax-ns#"
   xmlns:svg="http://www.w3.org/2000/svg"
   xmlns="http://www.w3.org/2000/svg"
   xmlns:sodipodi="http://sodipodi.sourceforge.net/DTD/sodipodi-0.dtd"
   xmlns:inkscape="http://www.inkscape.org/namespaces/inkscape"
   xml:space="preserve"
   height="33"
   viewBox="0 0 33 33"
   width="33"
   version="1.1"
   y="0px"
   x="0px"
   id="svg2"
   inkscape:version="0.91 r13725"
   sodipodi:docname="image10.svg"><metadata
     id="metadata22"><rdf:RDF><cc:Work
         rdf:about=""><dc:format>image/svg+xml</dc:format><dc:type
           rdf:resource="http://purl.org/dc/dcmitype/StillImage" /><dc:title></dc:title></cc:Work></rdf:RDF></metadata><defs
     id="defs20" /><sodipodi:namedview
     pagecolor="#ffffff"
     bordercolor="#666666"
     borderopacity="1"
     objecttolerance="10"
     gridtolerance="10"
     guidetolerance="10"
     inkscape:pageopacity="0"
     inkscape:pageshadow="2"
     inkscape:window-width="1440"
     inkscape:window-height="806"
     id="namedview18"
     showgrid="false"
     fit-margin-top="0"
     fit-margin-left="0"
     fit-margin-right="0"
     fit-margin-bottom="0"
     inkscape:zoom="1"
     inkscape:cx="20"
     inkscape:cy="20"
     inkscape:window-x="0"
     inkscape:window-y="1"
     inkscape:window-maximized="1"
     inkscape:current-layer="svg2" /><g
     style="fill:#44d8ea"
     transform="matrix(-0.515625,0,0,0.515625,33,0)"
     id="g4"><g
       style="fill:#44d8ea"
       id="g6"><g
         style="fill:#44d8ea"
         id="g8"><path
           style="fill:#44d8ea"
           d="M 32,0 C 14.327,0 0,14.327 0,32 0,49.673 14.327,64 32,64 49.673,64 64,49.673 64,32 64,14.327 49.673,0 32,0 Z m 0,62 C 15.432,62 2,48.569 2,32.001 2,15.432 15.432,2 32,2 48.568,2 62,15.432 62,32.001 62,48.569 48.568,62 32,62 Z"
           id="path10"
           inkscape:connector-curvature="0" /></g></g><g
       style="fill:#44d8ea"
       id="g12"><g
         style="fill:#44d8ea"
         id="g14"><path
           style="fill:#44d8ea"
           d="m 33,26.999 0,-3.989 c 0,-0.735 -0.406,-1.411 -1.057,-1.759 -0.65,-0.347 -1.439,-0.308 -2.053,0.1 l -12,7.978 C 17.334,29.698 17,30.32 17,30.987 c 0,0.666 0.334,1.289 0.891,1.659 l 12,7.978 c 0.613,0.409 1.402,0.446 2.053,0.1 C 32.594,40.375 33,39.701 33,38.965 l 0,-3.989 c 5.171,0.005 9.069,3.393 10.996,8.012 C 44.809,41.704 45,40.365 45,38.965 45,32.356 39.628,26.999 33,26.999 Z M 31,33 l 0,4 0,1.531 c 0,0 -0.907,-0.016 -1.411,-0.351 L 20.2,32.404 c -0.457,-0.303 -0.731,-0.812 -0.731,-1.357 0,-0.546 0.274,-0.931 0.731,-1.233 l 9.389,-6.183 C 30.093,23.298 31,23.344 31,23.344 l 0,1.656 0,4 c 6.003,0 13.021,2.604 13.021,11.674 C 44.021,40.674 42.468,33 31,33 Z"
           id="path16"
           inkscape:connector-curvature="0" /></g></g></g></svg>